<?xml version="1.0" encoding="utf-8"?>
<!-- Generator: Adobe Illustrator 22.1.0, SVG Export Plug-In . SVG Version: 6.00 Build 0)  -->
<svg version="1.1" id="Layer_1" xmlns="http://www.w3.org/2000/svg" xmlns:xlink="http://www.w3.org/1999/xlink" x="0px" y="0px"
	 viewBox="0 0 1000 300" style="enable-background:new 0 0 1000 300;" xml:space="preserve">
<style type="text/css">
	.st0{fill:#FFFFFF;}
	.st1{clip-path:url(#SVGID_2_);fill:#52BDCF;}
	.st2{clip-path:url(#SVGID_4_);fill:#2475BC;}
	.st3{clip-path:url(#SVGID_6_);}
	.st4{fill:#2475BC;}
	.st5{clip-path:url(#SVGID_8_);}
	.st6{opacity:0.6;clip-path:url(#SVGID_10_);fill:url(#SVGID_11_);enable-background:new    ;}
	.st7{clip-path:url(#SVGID_13_);fill:url(#SVGID_14_);}
	.st8{clip-path:url(#SVGID_16_);fill:#2475BC;}
	.st9{opacity:0.6;clip-path:url(#SVGID_18_);fill:#52BDCF;enable-background:new    ;}
</style>
<g>
	<g>
		<g>
			<rect y="0.7" class="st0" width="1000" height="299.4"/>
		</g>
	</g>
	<g>
		<g>
			<g>
				<defs>
					<rect id="SVGID_1_" y="0.7" width="1000" height="299.4"/>
				</defs>
				<clipPath id="SVGID_2_">
					<use xlink:href="#SVGID_1_"  style="overflow:visible;"/>
				</clipPath>
				<path class="st1" d="M500.8-185.5c-66.2,307.3-480.2,544-981.1,544c-190.4,0-368.3-34.2-519.2-93.5v-447.6H500.8V-185.5
					L500.8-185.5z"/>
			</g>
		</g>
		<g>
			<g>
				<defs>
					<rect id="SVGID_3_" y="0.7" width="1000" height="299.4"/>
				</defs>
				<clipPath id="SVGID_4_">
					<use xlink:href="#SVGID_3_"  style="overflow:visible;"/>
				</clipPath>
				<path class="st2" d="M530.6-170.1C410.9,77.1,3.1,210.6-432.4,132.2C-597.9,102.4-745.7,46-864.9-27.4l90.5-375L530-167.7
					L530.6-170.1L530.6-170.1z"/>
			</g>
		</g>
		<g>
			<g>
				<defs>
					<rect id="SVGID_5_" y="0.7" width="1000" height="299.4"/>
				</defs>
				<clipPath id="SVGID_6_">
					<use xlink:href="#SVGID_5_"  style="overflow:visible;"/>
				</clipPath>
				<g class="st3">
					<path class="st4" d="M-773.1,331.4c-182-33.3-343.5-90.9-474-163.6l-32.2,161.3c143.1,63.5,317.7,107.8,510.9,124.2
						C-321.7,491.1,88,367.2,261.8,162.6C52.6,333.9-353.6,408.2-773.1,331.4z"/>
				</g>
			</g>
		</g>
		<g>
			<g>
				<defs>
					<rect id="SVGID_7_" y="0.7" width="1000" height="299.4"/>
				</defs>
				<clipPath id="SVGID_8_">
					<use xlink:href="#SVGID_7_"  style="overflow:visible;"/>
				</clipPath>
				<g class="st5">
					<path class="st4" d="M1698.9,10c183.1,27.2,346.5,79.4,479.6,147.8L2205-4.6c-145.3-58.6-321.4-97.3-515-107.1
						C1242.3-134.6,837.2,2.8,670.8,213C873.6,34.9,1276.9-52.9,1698.9,10z"/>
				</g>
			</g>
		</g>
		<g>
			<g>
				<defs>
					<rect id="SVGID_9_" y="0.7" width="1000" height="299.4"/>
				</defs>
				<clipPath id="SVGID_10_">
					<use xlink:href="#SVGID_9_"  style="overflow:visible;"/>
				</clipPath>
				
					<linearGradient id="SVGID_11_" gradientUnits="userSpaceOnUse" x1="-1334.1001" y1="316.0013" x2="387.1" y2="316.0013" gradientTransform="matrix(1 0 0 1 0 -198)">
					<stop  offset="0" style="stop-color:#2475BC"/>
					<stop  offset="0.1759" style="stop-color:#2475BC"/>
					<stop  offset="0.4705" style="stop-color:#52BDCF"/>
					<stop  offset="0.5521" style="stop-color:#52BDCF"/>
					<stop  offset="0.8652" style="stop-color:#52BDCF"/>
					<stop  offset="0.9944" style="stop-color:#2475BC"/>
				</linearGradient>
				<path class="st6" d="M387.1,9.5C248.5,115.4-324.3,391.2-758.7-14.9l-575.4-14.4C-453.2,528.8,277.5,147.9,387.1,9.5z"/>
			</g>
		</g>
		<g>
			<g>
				<defs>
					<rect id="SVGID_12_" y="0.7" width="1000" height="299.4"/>
				</defs>
				<clipPath id="SVGID_13_">
					<use xlink:href="#SVGID_12_"  style="overflow:visible;"/>
				</clipPath>
				
					<linearGradient id="SVGID_14_" gradientUnits="userSpaceOnUse" x1="-759.9367" y1="286.8973" x2="-1079.8422" y2="-602.6291" gradientTransform="matrix(-1 0 0 -1 185.4221 106.4546)">
					<stop  offset="0" style="stop-color:#2475BC"/>
					<stop  offset="0.1759" style="stop-color:#2475BC"/>
					<stop  offset="0.4705" style="stop-color:#52BDCF"/>
					<stop  offset="0.5521" style="stop-color:#2475BC"/>
					<stop  offset="0.8652" style="stop-color:#52BDCF"/>
					<stop  offset="0.9944" style="stop-color:#2475BC"/>
				</linearGradient>
				<path class="st7" d="M459.7,559.6C519,252.3,889.2,15.6,1337,15.6c170.3,0,329.3,34.2,464.3,93.5v447.6H459.7V559.6L459.7,559.6
					z"/>
			</g>
		</g>
		<g>
			<g>
				<defs>
					<rect id="SVGID_15_" y="0.7" width="1000" height="299.4"/>
				</defs>
				<clipPath id="SVGID_16_">
					<use xlink:href="#SVGID_15_"  style="overflow:visible;"/>
				</clipPath>
				<path class="st8" d="M476.5,505.6c107-247.1,471.7-380.7,861-302.4c148,29.8,280.1,86.3,386.8,159.6l-80.9,375L477,503.2
					L476.5,505.6L476.5,505.6z"/>
			</g>
		</g>
		<g>
			<g>
				<defs>
					<rect id="SVGID_17_" y="0.7" width="1000" height="299.4"/>
				</defs>
				<clipPath id="SVGID_18_">
					<use xlink:href="#SVGID_17_"  style="overflow:visible;"/>
				</clipPath>
				<path class="st9" d="M559.3,368.1c123.9-105.9,636.1-381.7,1024.6,24.4l514.5,14.4C1310.6-151.2,657.3,229.7,559.3,368.1z"/>
			</g>
		</g>
	</g>
</g>
</svg>
